IME05-06471 - Exemplo 01
…
Bids

bids %>% group_by(Setor, Bloco, consorcio) %>% filter(vencedor=="Sim") %>%
                                    summarize(valor=bonus) %>%                                           arrange(desc(valor))

`summarise()` has grouped output by 'Setor', 'Bloco'. You can override using
the `.groups` argument.

# A tibble: 192 × 4
# Groups:   Setor, Bloco [192]
   Setor   Bloco    consorcio                                valor
   <chr>   <chr>    <chr>                                    <dbl>
 1 SS-AUP5 S-M-1378 Equinor Brasil (100%)*               62500000 
 2 SP-AP1  P-M-132  Chevron Brasil Óleo (100%)*          21920657.
 3 SS-AP4  S-M-1813 CNOOC Petroleum (100%)*              19430000 
 4 SP-AP1  P-M-24   Chevron Brasil Óleo (100%)*          16880657.
 5 SP-AUP2 P-M-1361 Petrobras (70%)*; Shell Brasil (30%) 15904416.
 6 SP-AUP2 P-M-1363 Petrobras (70%)*; Shell Brasil (30%) 15776072.
 7 SP-AUP4 P-M-1840 Petrobras (70%)*; Shell Brasil (30%) 15556072.
 8 SP-AUP2 P-M-1443 Petrobras (70%)*; Shell Brasil (30%) 15004416.
 9 SP-AP1  P-M-76   Chevron Brasil Óleo (100%)*          14880657.
10 SP-AUP2 P-M-1441 Petrobras (70%)*; Shell Brasil (30%) 14876072.
# ℹ 182 more rows
…
